<?xml version="1.0" encoding="utf-8"?>
<!-- Generator: Adobe Illustrator 25.0.0, SVG Export Plug-In . SVG Version: 6.00 Build 0)  -->
<svg version="1.1" id="Layer_1" xmlns="http://www.w3.org/2000/svg" xmlns:xlink="http://www.w3.org/1999/xlink" x="0px" y="0px"
	 viewBox="0 0 250 104.6" style="enable-background:new 0 0 250 104.6;" xml:space="preserve">
<style type="text/css">
	.st0{fill:#FFFFFF;}
</style>
<g>
	<g>
		<path class="st0" d="M110.1,77.2c-0.2-0.3-0.6-0.4-0.9-0.4H82c-0.5,0-1,0.3-1.2,0.9L80,80.4c-0.6-0.2-1.2-0.6-1.7-1l-1.7-1.5
			c0,0-0.1,0-0.1-0.1c-3.8-2.9-8.9-3.4-13.2-1.3l-0.7,0.3c-1,0.5-2,0.7-3.1,0.7h-5.1l-3.8-2.1c-2.1-1.2-4.6-1-6.5,0.4l-0.5-0.3
			c0,0,0,0,0,0c-1.7-0.9-3.9-0.3-5.3,1.1l0,0c-2.5-1.4-5.7-0.5-7.1,2c-0.3,0.5-0.2,1.3,0.4,1.6l18,12.3c0,0,0.1,0.1,0.1,0.1
			c2.7,1.3,5.7,1.7,8.6,1.2L68.7,92c0,0,0.1,0,0.1,0c0.6-0.2,1.3-0.1,1.9,0.2l4.8,3l-1.5,5.1c-0.2,0.6,0.2,1.3,0.8,1.5
			c0.1,0,0.2,0.1,0.4,0.1h31.3c0.6,0,1.1-0.5,1.2-1.1l2.8-22.7C110.4,77.8,110.3,77.4,110.1,77.2L110.1,77.2z M49.6,77.6L49.6,77.6
			l0.8,0.4c-0.4,0.2-0.8,0.4-1.1,0.6l-2.5-1.3C47.7,77,48.7,77.1,49.6,77.6L49.6,77.6z M42.6,77.8l4.8,2.6c-0.2,0.3-0.4,0.6-0.5,0.9
			L40.7,78C41.3,77.6,42,77.5,42.6,77.8L42.6,77.8z M71.9,90.2C71.9,90.2,71.9,90.2,71.9,90.2c-1.2-0.7-2.5-0.8-3.7-0.5l-10.3,1.9
			c-2.4,0.4-4.8,0.1-7-1L34.1,79.1c0.9-0.7,2.2-0.8,3.2-0.2l8.5,4.6l0.6,0.3c0,0,0,0.1,0,0.1c0,0.7,0.5,1.2,1.2,1.2c0,0,0,0,0.1,0
			l5.9-0.3c1.7-0.1,3.4,0,5.1,0.2c0.7,0.1,1.3-0.4,1.4-1c0.1-0.7-0.4-1.3-1-1.4l0,0c-1.8-0.3-3.7-0.3-5.5-0.3L49,82.6
			c0.5-1.6,2-2.7,3.7-2.7h6.9c1.4,0,2.8-0.3,4.1-0.9l0.7-0.3c3.5-1.7,7.6-1.3,10.6,1l1.7,1.5c0.8,0.7,1.6,1.2,2.6,1.5l-3.1,10.2
			L71.9,90.2z M105.3,99.5H76.7l6.2-20.3h24.9L105.3,99.5z"/>
		<path class="st0" d="M39,40.4v-2.1h1.2c0.7,0,1.5,0.1,2.2,0.2l-3.5,4.7c-5,6.7-4.6,16,0.8,22.4c4.1,4.8,10,7.6,16.3,7.6
			c6.3,0,12.3-2.8,16.3-7.6c5.4-6.4,5.8-15.7,0.8-22.4l-3.5-4.8c0,0,0-0.1,0-0.1c0-0.8-0.2-1.6-0.7-2.2c1.9-1.1,2.6-3.6,1.4-5.6
			c-0.2-0.3-0.4-0.6-0.7-0.8c1.6-1.6,1.6-4.2,0-5.8c1.5-1.5,1.6-4,0.1-5.5c-0.5-0.5-1.1-0.8-1.7-1c1.9-1.1,3.1-3.3,3.1-6.2v-0.1
			c0-0.7-0.5-1.2-1.2-1.2h-3.8c0.6-1.6,1.4-3.1,2.3-4.6c0.3-0.6,0.2-1.3-0.4-1.7c-0.2-0.1-0.4-0.2-0.6-0.2L49.3,3.1
			c-0.7,0-1.2,0.5-1.2,1.2c0,0.2,0.1,0.5,0.2,0.7l1.2,1.9c0.6,0.9,1.1,1.9,1.6,2.9h-1c-4.2,0-5.3,3.1-5.9,4.8
			c-0.1,0.3-0.2,0.6-0.3,0.9c-1.3,0.8-2.4,1.1-3.5,1.1H39V14c0-0.7-0.5-1.2-1.2-1.2H11.1c-0.7,0-1.2,0.5-1.2,1.2v26.4
			c0,0.7,0.5,1.2,1.2,1.2h26.7C38.4,41.6,39,41,39,40.4L39,40.4z M71.1,44.6c4.3,5.8,4,13.9-0.7,19.4c-6.8,8-18.7,9-26.7,2.2
			c-0.8-0.7-1.5-1.4-2.2-2.2c-4.7-5.5-5-13.6-0.7-19.4l4.1-5.5c1,0.3,2,0.8,2.9,1.4c-3,2.5-2.8,6.4-2.2,8.3c0.2,0.6,0.9,1,1.5,0.8
			c0.6-0.2,1-0.9,0.8-1.5c-0.2-0.8-0.3-1.7-0.2-2.5c0.1-1.7,1.1-3.1,2.6-3.9c2.1,0.7,4.4,0.8,6.7,0.8h2.8l0.3,0.5
			c1.1,1.9,1.6,4.1,1.4,6.4l0,0.4c0,0.7,0.5,1.2,1.1,1.3c0,0,0,0,0,0c0,0,0.1,0,0.1,0c0.6,0,1.2-0.5,1.2-1.1l0-0.4
			c0.2-2.4-0.3-4.8-1.3-6.9c0.7,0.3,2.8,1.4,3.2,5.7c0.1,0.6,0.6,1.1,1.2,1.1c0,0,0.1,0,0.1,0c0.7-0.1,1.1-0.7,1.1-1.3
			c-0.3-2.7-1.1-4.5-2-5.6c0.9-0.2,1.7-0.6,2.2-1.3L71.1,44.6z M68.7,12.1c-0.2,1.4-0.9,3.4-3.4,3.4h-0.9c0.2-1.1,0.5-2.3,0.8-3.4
			L68.7,12.1L68.7,12.1z M52.5,5.5c0,0,0.1,0,0.1,0.1c1.9,0.8,3.4,3.3,3.2,5.1c-0.1,0.7,0.3,1.3,1,1.4c0,0,0,0,0,0
			c0.1,0,0.1,0,0.2,0c0.6,0,1.1-0.4,1.2-1c0.3-1.8-0.4-3.9-1.7-5.5l3.8,0c-0.4,1.2-0.8,2.8-0.5,4.5c0.1,0.7,0.7,1.1,1.4,1
			c0.7-0.1,1.1-0.7,1-1.4c-0.3-1.6,0.3-3.3,0.7-4.1l2.6,0c-1.8,3.3-3,6.9-3.5,10.6l-0.1,0.9l-5.2,0.1c-0.3,0-0.5-0.1-0.7-0.3
			c-0.7-4-2.2-7.9-4.4-11.4L52.5,5.5z M39,19h1.4c1.6,0,3.2-0.5,4.9-1.6c0.7-0.4,0.9-1.2,1.2-2.1c0.6-1.9,1.2-3.2,3.6-3.2h2.1
			c0.4,1.1,0.8,2.3,1.1,3.4v0.7c0,0,0,0.1,0,0.1c0.2,1.8,1.7,3.3,3.4,3.3h0L67,19.5c0.8,0,1.5,0.7,1.5,1.5c0,0.8-0.7,1.5-1.5,1.5
			h-2.5c-0.1,0-0.1,0-0.2,0h-1.6c-0.7,0-1.2,0.5-1.2,1.2c0,0.7,0.5,1.2,1.2,1.2h4c1,0,1.8,0.8,1.8,1.8c0,1-0.8,1.8-1.8,1.8h-4
			c-0.7,0-1.2,0.5-1.2,1.2s0.5,1.2,1.2,1.2h4.1c0.9,0,1.7,0.8,1.7,1.7c0,0.9-0.7,1.7-1.7,1.7H61c-0.7,0-1.2,0.5-1.2,1.2
			s0.5,1.2,1.2,1.2h4.5c0.9,0,1.7,0.8,1.6,1.7c0,0.9-0.7,1.6-1.6,1.6h-8.4c-3,0-5.6-0.1-7.8-1.5c-2.7-1.7-5.9-2.6-9.1-2.6H39L39,19z
			 M36.6,39.2H12.3v-24h24.3V39.2z"/>
		<g>
			<path class="st0" d="M59.9,53.5h-2.7c-0.1,0-0.2,0.2-0.1,0.3c0.4,0.4,0.7,0.9,0.8,1.6c0,0.1,0.1,0.1,0.2,0.1h1.8
				c0.1,0,0.2,0.1,0.2,0.2v0.7c0,0.1-0.1,0.2-0.2,0.2h-1.8c-0.1,0-0.1,0.1-0.2,0.1c-0.2,1.8-1.7,3-3.9,3.2c-0.1,0-0.2,0.2-0.1,0.3
				c1.4,1.5,2.9,3.3,4.4,5.1c0.1,0.1,0,0.3-0.1,0.3h-1.5c0,0-0.1,0-0.1-0.1c-1.5-1.8-2.9-3.5-4.7-5.4c0,0,0-0.1,0-0.1v-1
				c0-0.1,0.1-0.2,0.2-0.2h0.9c2,0,3.1-0.8,3.4-2c0-0.1-0.1-0.2-0.2-0.2H52c-0.1,0-0.2-0.1-0.2-0.2v-0.7c0-0.1,0.1-0.2,0.2-0.2h4
				c0.1,0,0.2-0.1,0.2-0.2c-0.3-1-1.4-1.5-3-1.5H52c-0.1,0-0.2-0.1-0.2-0.2v-1c0-0.1,0.1-0.2,0.2-0.2h7.9c0.1,0,0.2,0.1,0.2,0.2v0.7
				C60.1,53.4,60,53.5,59.9,53.5z"/>
		</g>
	</g>
	<g>
		<path class="st0" d="M157.7,29.6c0,0.8,0,1.5-0.1,2.1c-0.1,0.6-0.2,1-0.3,1.4c-0.1,0.4-0.3,0.6-0.5,0.8s-0.4,0.3-0.7,0.3h-13.7v44
			c0,0.3-0.1,0.5-0.3,0.8c-0.2,0.2-0.5,0.4-0.9,0.5c-0.4,0.1-1,0.3-1.7,0.3c-0.7,0.1-1.6,0.1-2.7,0.1c-1.1,0-2,0-2.7-0.1
			c-0.7-0.1-1.3-0.2-1.7-0.3s-0.7-0.3-0.9-0.5c-0.2-0.2-0.3-0.5-0.3-0.8v-44h-13.7c-0.3,0-0.5-0.1-0.7-0.3c-0.2-0.2-0.4-0.4-0.5-0.8
			c-0.1-0.4-0.2-0.8-0.3-1.4c-0.1-0.6-0.1-1.3-0.1-2.1c0-0.8,0-1.6,0.1-2.2c0.1-0.6,0.2-1.1,0.3-1.4c0.1-0.4,0.3-0.6,0.5-0.8
			c0.2-0.2,0.4-0.2,0.7-0.2h38.5c0.3,0,0.5,0.1,0.7,0.2c0.2,0.2,0.4,0.4,0.5,0.8c0.1,0.4,0.2,0.8,0.3,1.4
			C157.7,28.1,157.7,28.8,157.7,29.6z"/>
		<path class="st0" d="M194.8,29.6c0,0.8,0,1.6-0.1,2.1c-0.1,0.6-0.2,1-0.3,1.4c-0.2,0.3-0.3,0.6-0.5,0.8c-0.2,0.2-0.4,0.3-0.7,0.3
			h-17.8v14.7h16.7c0.3,0,0.5,0.1,0.7,0.2c0.2,0.1,0.4,0.4,0.5,0.7c0.2,0.3,0.3,0.8,0.3,1.4c0.1,0.6,0.1,1.3,0.1,2.1s0,1.5-0.1,2.1
			c-0.1,0.6-0.2,1-0.3,1.4c-0.2,0.4-0.3,0.6-0.5,0.8c-0.2,0.2-0.4,0.2-0.7,0.2h-16.7v20.3c0,0.3-0.1,0.6-0.3,0.8s-0.5,0.4-0.9,0.6
			c-0.4,0.2-1,0.3-1.7,0.4c-0.7,0.1-1.6,0.1-2.7,0.1c-1.1,0-2,0-2.7-0.1c-0.7-0.1-1.3-0.2-1.7-0.4c-0.4-0.2-0.7-0.3-0.9-0.6
			c-0.2-0.2-0.3-0.5-0.3-0.8V28.6c0-1.2,0.3-2.1,0.9-2.7c0.6-0.5,1.4-0.8,2.3-0.8h25.7c0.3,0,0.5,0.1,0.7,0.2
			c0.2,0.2,0.4,0.4,0.5,0.8c0.2,0.4,0.3,0.8,0.3,1.4C194.8,28.1,194.8,28.8,194.8,29.6z"/>
		<path class="st0" d="M240.1,29.6c0,0.8,0,1.5-0.1,2.1c-0.1,0.6-0.2,1-0.3,1.4c-0.1,0.4-0.3,0.6-0.5,0.8s-0.4,0.3-0.7,0.3h-13.7v44
			c0,0.3-0.1,0.5-0.3,0.8c-0.2,0.2-0.5,0.4-0.9,0.5c-0.4,0.1-1,0.3-1.7,0.3c-0.7,0.1-1.6,0.1-2.7,0.1c-1.1,0-2,0-2.7-0.1
			c-0.7-0.1-1.3-0.2-1.7-0.3s-0.7-0.3-0.9-0.5c-0.2-0.2-0.3-0.5-0.3-0.8v-44H200c-0.3,0-0.5-0.1-0.7-0.3c-0.2-0.2-0.4-0.4-0.5-0.8
			c-0.1-0.4-0.2-0.8-0.3-1.4c-0.1-0.6-0.1-1.3-0.1-2.1c0-0.8,0-1.6,0.1-2.2c0.1-0.6,0.2-1.1,0.3-1.4c0.1-0.4,0.3-0.6,0.5-0.8
			c0.2-0.2,0.4-0.2,0.7-0.2h38.5c0.3,0,0.5,0.1,0.7,0.2c0.2,0.2,0.4,0.4,0.5,0.8c0.1,0.4,0.2,0.8,0.3,1.4
			C240.1,28.1,240.1,28.8,240.1,29.6z"/>
	</g>
</g>
</svg>
